{
  "port": 8103,
  "baseUrl": "http://localhost:8103/",
  "issuer": "http://localhost:8103/",
  "audience": "http://localhost:8103/",
  "jwksUrl": "http://localhost:8103/.well-known/jwks.json",
  "authorizeUrl": "http://localhost:8103/oauth2/authorize",
  "tokenUrl": "http://localhost:8103/oauth2/token",
  "userInfoUrl": "http://localhost:8103/oauth2/userinfo",
  "appBaseUrl": "http://localhost:3000/",
  "binaryStorage": "file:./binary/",
  "storageBaseUrl": "http://localhost:8103/storage/",
  "signingKeyId": "my-key-id",
  "signingKey": "-----BEGIN RSA PRIVATE KEY-----\nProc-Type: 4,ENCRYPTED\nDEK-Info: DES-EDE3-CBC,4C2E1B45FFF24610\n\n0SOZn3P0Bd9lZgv2eSWWLMQ4JqxhbJ+dWM+V1TtSwqxe3VP24z4bys5VRpmsEpqn\nROKxdXCeqAbYsLo8V9dOQvwaxo2TTWFgUFj7sQYklyr1g5S9+KCp+1B/5E7UgNDd\nhXA2u4uhz6Bck0mTPwoy3oHjNUaNBZilMdwiR3qeiGYC0DyX69+IJgwFUTt2a1jc\nU5aUyellGYa47QRZcePgyk7Cl4FcBW9YA0pS4rNpO4wNVN6GGuZti4c0Y3PHXSRE\nDse95ZN9iWBtufjpjk4s8MX0rzqMWcjbAhTs2N5YBgKsv2czm5YMdXsYH6tGL7a1\nPyNia0r1AnHAD3pK+vzaZGaLrvubZikrt7dr+Tp1U45b2YaZlMMaXwGU6WEK7kwr\n4sbl9hqQf/+oqBAdyJIgxIhFumK+ukUIlCV+b/XUuoatDXD127JwEyEM78Nzg5Bc\n/bKGEo9uehXpuIi0jp1BtegUIkfoV543PZZgslGVdzq0vXOir+PiHJBLlbWXXSAb\nEWKOQW2/bZ8JIHhi3Ag7KDlTVF1XetJ2TqYOOP9izfMp4lJ2vLtkH7P+jEKG8z6b\nurnXYkDWYEbzhG1frEssVQN0GP3wdyEK+n6LBCuj52Uje/M7LwahPX6dJRYPOpL9\nbApSNNJLahRRQREHp1wqEWism3r4+yRa4ha/BGc4dfKTsUtJEiHqdWvDzomN5C6A\nC7u3zjUv3ZZLoCLCbBUsiVdlJZJ5u/ymky5LKVbsscmZj93HE7/FL56I17bmTlDo\npvkJWk9SmVXvs3lwMMBRbykj974ZWEMw9EjCoP9rDJ0UNsy2kVRFfXoPMKL5S01D\niBRVSZB7k7qJofGtlBpDfooHOw4uAJ/6A0l8vpOm/Vpk8tdiRLL/RuzEKz5G3ltm\nrXPn83avfNc5+EvaM8IIKyPTvHegE5XszGK3NNlzUO1Ydze/xQPhdrp4QYFzJOuB\nXVIazLeXSJ5EjJ1ylWAWgNzsx+42NWeA2CZAZz+IJFw6C2iHEB8f8Nw6iJmFfm3I\nWsrvCRbuwIsW9fjtHTpOCCpxXu5EcvN5BKwFXeBatB7xqR6EnPbk6xDxZdroEKhH\nEZU4PlHu+BwTKKCwa4Ynwn1Qpu453qgNzaxgHLbdFipW5/AkreNWK5Il+5Bl8G90\no/MhO66eBXv3JbOtMUAqs9+Qyl5K1TaNqbStWmsiq+36Niz4ZRg7L/7W6zjG/hTH\npignoDyJYPjFFQ/sTsTUv0oKVI6KIYFlIHBDnGGnH09926sd+U/isSeMDP+Qa32m\nhHzScmDPsdyjdFsdXsJjZHe7mqCijGXu/LW4CoWoqln4y29c5BMJazwnIwegrLjJ\nQeW6InUhGZLy+uJbs1ZWxlqzOmMoTx2VVgoABdOHn/mQEC/AreUdvPMkVVYEuxel\nmAMOoefncx/EPxn7gY2SrEdmSnk9VuzR30KMC1qSw196QbQHR1G2vxKcXPwe/LH9\n7Pa0gwwqCaS2ggYt5Rvlxm7DeBIGHzGtPILnl1qyVGaqn64244JeLi9bY/O+E+uq\nBSgQmt2NwPK2RQgzzt/ETUXoOFHKiwS1v2Vp4H2PPDI8CzvlRralsQ==\n-----END RSA PRIVATE KEY-----",
  "signingKeyPassphrase": "top_secret",
  "supportEmail": "\"Medplum\" <support@medplum.com>",
  "googleClientId": "397236612778-c0b5tnjv98frbo1tfuuha5vkme3cmq4s.apps.googleusercontent.com",
  "googleClientSecret": "",
  "recaptchaSiteKey": "6LfHdsYdAAAAAC0uLnnRrDrhcXnziiUwKd8VtLNq",
  "recaptchaSecretKey": "6LfHdsYdAAAAAH9dN154jbJ3zpQife3xaiTvPChL",
  "adminClientId": "2a4b77f2-4d4e-43c6-9b01-330eb5ca772f",
  "maxJsonSize": "1mb",
  "maxUploadSize": "10mb",
  "botLambdaRoleArn": "",
  "botLambdaLayerName": "medplum-bot-layer",
  "database": {
    "host": "localhost",
    "port": 5432,
    "dbname": "medplum",
    "username": "medplum",
    "password": "medplum"
  },
  "redis": {
    "host": "localhost",
    "port": 6379
  }
}

